{"logs":[{"id":278,"actor_id":290,"action":"read_context","target_type":"client_context","target_id":291,"details":"{\"context_id\":2}","ip_address":null,"created_at":"2026-03-11 15:52:13"},{"id":277,"actor_id":290,"action":"read_timeline","target_type":"client","target_id":291,"details":"{\"items_count\":4}","ip_address":null,"created_at":"2026-03-11 15:52:02"},{"id":276,"actor_id":290,"action":"read_notes","target_type":"client","target_id":291,"details":"{\"notes_count\":0,\"page\":1}","ip_address":null,"created_at":"2026-03-11 15:51:44"},{"id":275,"actor_id":290,"action":"read_diary","target_type":"client","target_id":291,"details":"{\"entries_count\":4,\"page\":1}","ip_address":null,"created_at":"2026-03-11 15:51:33"},{"id":274,"actor_id":290,"action":"read_context","target_type":"client_context","target_id":291,"details":"{\"context_id\":2}","ip_address":null,"created_at":"2026-03-11 15:50:55"},{"id":273,"actor_id":290,"action":"read_timeline","target_type":"client","target_id":291,"details":"{\"items_count\":4}","ip_address":null,"created_at":"2026-03-11 15:50:42"},{"id":272,"actor_id":290,"action":"read_notes","target_type":"client","target_id":291,"details":"{\"notes_count\":0,\"page\":1}","ip_address":null,"created_at":"2026-03-11 15:50:30"},{"id":271,"actor_id":290,"action":"read_diary","target_type":"client","target_id":291,"details":"{\"entries_count\":4,\"page\":1}","ip_address":null,"created_at":"2026-03-11 15:50:18"},{"id":270,"actor_id":290,"action":"read_context","target_type":"client_context","target_id":291,"details":"{\"context_id\":2}","ip_address":null,"created_at":"2026-03-11 15:49:48"},{"id":269,"actor_id":290,"action":"create_context","target_type":"client_context","target_id":291,"details":"{\"fields\":[\"anamnesis\"]}","ip_address":null,"created_at":"2026-03-11 15:49:31"},{"id":268,"actor_id":290,"action":"read_timeline","target_type":"client","target_id":291,"details":"{\"items_count\":4}","ip_address":null,"created_at":"2026-03-11 15:49:17"},{"id":267,"actor_id":290,"action":"read_notes","target_type":"client","target_id":291,"details":"{\"notes_count\":0,\"page\":1}","ip_address":null,"created_at":"2026-03-11 15:49:16"},{"id":266,"actor_id":290,"action":"read_diary","target_type":"client","target_id":291,"details":"{\"entries_count\":4,\"page\":1}","ip_address":null,"created_at":"2026-03-11 15:49:16"},{"id":265,"actor_id":290,"action":"read_sessions","target_type":"client","target_id":291,"details":"{\"sessions_count\":0,\"page\":1}","ip_address":null,"created_at":"2026-03-11 15:48:51"},{"id":264,"actor_id":290,"action":"read_timeline","target_type":"client","target_id":291,"details":"{\"items_count\":4}","ip_address":null,"created_at":"2026-03-11 15:48:51"},{"id":263,"actor_id":290,"action":"read_notes","target_type":"client","target_id":291,"details":"{\"notes_count\":0,\"page\":1}","ip_address":null,"created_at":"2026-03-11 15:48:51"},{"id":262,"actor_id":290,"action":"read_sessions","target_type":"client","target_id":291,"details":"{\"sessions_count\":0,\"page\":1}","ip_address":null,"created_at":"2026-03-11 15:48:51"},{"id":261,"actor_id":290,"action":"read_diary","target_type":"client","target_id":291,"details":"{\"entries_count\":4,\"page\":1}","ip_address":null,"created_at":"2026-03-11 15:48:51"},{"id":260,"actor_id":290,"action":"read_timeline","target_type":"client","target_id":291,"details":"{\"items_count\":4}","ip_address":null,"created_at":"2026-03-11 15:48:51"},{"id":259,"actor_id":290,"action":"read_notes","target_type":"client","target_id":291,"details":"{\"notes_count\":0,\"page\":1}","ip_address":null,"created_at":"2026-03-11 15:48:51"},{"id":258,"actor_id":290,"action":"read_diary","target_type":"client","target_id":291,"details":"{\"entries_count\":4,\"page\":1}","ip_address":null,"created_at":"2026-03-11 15:48:51"},{"id":257,"actor_id":290,"action":"read_diary","target_type":"client","target_id":291,"details":"{\"entries_count\":4,\"page\":1}","ip_address":null,"created_at":"2026-03-11 15:36:15"},{"id":256,"actor_id":294,"action":"consent_granted","target_type":"user","target_id":293,"details":"{\"client_id\":294,\"therapist_id\":293,\"telegram_id\":\"client_1773243225494\"}","ip_address":null,"created_at":"2026-03-11 15:33:45"},{"id":255,"actor_id":290,"action":"read_timeline","target_type":"client","target_id":291,"details":"{\"items_count\":1}","ip_address":null,"created_at":"2026-03-11 15:31:59"},{"id":254,"actor_id":290,"action":"read_notes","target_type":"client","target_id":291,"details":"{\"notes_count\":0,\"page\":1}","ip_address":null,"created_at":"2026-03-11 15:31:59"},{"id":253,"actor_id":290,"action":"read_timeline","target_type":"client","target_id":291,"details":"{\"items_count\":1}","ip_address":null,"created_at":"2026-03-11 15:31:59"},{"id":252,"actor_id":290,"action":"read_diary","target_type":"client","target_id":291,"details":"{\"entries_count\":1,\"page\":1}","ip_address":null,"created_at":"2026-03-11 15:31:59"},{"id":251,"actor_id":290,"action":"read_notes","target_type":"client","target_id":291,"details":"{\"notes_count\":0,\"page\":1}","ip_address":null,"created_at":"2026-03-11 15:31:59"},{"id":250,"actor_id":290,"action":"read_diary","target_type":"client","target_id":291,"details":"{\"entries_count\":1,\"page\":1}","ip_address":null,"created_at":"2026-03-11 15:31:59"},{"id":249,"actor_id":291,"action":"consent_granted","target_type":"user","target_id":290,"details":"{\"client_id\":291,\"therapist_id\":290,\"telegram_id\":\"vid_client_25b\"}","ip_address":null,"created_at":"2026-03-11 15:31:26"},{"id":248,"actor_id":288,"action":"consent_granted","target_type":"user","target_id":289,"details":"{\"client_id\":288,\"therapist_id\":289,\"telegram_id\":\"vid_client_25\"}","ip_address":null,"created_at":"2026-03-11 15:30:13"},{"id":247,"actor_id":284,"action":"read_timeline","target_type":"client","target_id":287,"details":"{\"items_count\":0}","ip_address":null,"created_at":"2026-03-11 15:29:41"},{"id":246,"actor_id":284,"action":"read_notes","target_type":"client","target_id":287,"details":"{\"notes_count\":0,\"page\":1}","ip_address":null,"created_at":"2026-03-11 15:29:41"},{"id":245,"actor_id":284,"action":"read_diary","target_type":"client","target_id":287,"details":"{\"entries_count\":0,\"page\":1}","ip_address":null,"created_at":"2026-03-11 15:29:41"},{"id":244,"actor_id":284,"action":"read_timeline","target_type":"client","target_id":287,"details":"{\"items_count\":0}","ip_address":null,"created_at":"2026-03-11 15:29:41"},{"id":243,"actor_id":284,"action":"read_notes","target_type":"client","target_id":287,"details":"{\"notes_count\":0,\"page\":1}","ip_address":null,"created_at":"2026-03-11 15:29:41"},{"id":242,"actor_id":284,"action":"read_diary","target_type":"client","target_id":287,"details":"{\"entries_count\":0,\"page\":1}","ip_address":null,"created_at":"2026-03-11 15:29:41"},{"id":241,"actor_id":287,"action":"consent_granted","target_type":"user","target_id":284,"details":"{\"client_id\":287,\"therapist_id\":284,\"telegram_id\":\"import_ui_1773242977915\"}","ip_address":null,"created_at":"2026-03-11 15:29:38"},{"id":240,"actor_id":282,"action":"read_notes","target_type":"client","target_id":283,"details":"{\"notes_count\":1,\"page\":1}","ip_address":null,"created_at":"2026-03-11 15:28:22"},{"id":239,"actor_id":282,"action":"data_import","target_type":"user","target_id":283,"details":"{\"import_type\":\"notes\",\"total_entries\":1,\"imported\":1,\"errors\":0}","ip_address":null,"created_at":"2026-03-11 15:28:22"},{"id":238,"actor_id":282,"action":"read_notes","target_type":"client","target_id":283,"details":"{\"notes_count\":0,\"page\":1}","ip_address":null,"created_at":"2026-03-11 15:28:22"},{"id":237,"actor_id":282,"action":"data_import","target_type":"user","target_id":283,"details":"{\"import_type\":\"notes\",\"total_entries\":2,\"imported\":0,\"errors\":2}","ip_address":null,"created_at":"2026-03-11 15:28:22"},{"id":236,"actor_id":282,"action":"read_notes","target_type":"client","target_id":283,"details":"{\"notes_count\":0,\"page\":1}","ip_address":null,"created_at":"2026-03-11 15:28:22"},{"id":235,"actor_id":283,"action":"consent_granted","target_type":"user","target_id":282,"details":"{\"client_id\":283,\"therapist_id\":282,\"telegram_id\":\"import_client_1773242902611\"}","ip_address":null,"created_at":"2026-03-11 15:28:22"},{"id":234,"actor_id":280,"action":"read_notes","target_type":"client","target_id":281,"details":"{\"notes_count\":1,\"page\":1}","ip_address":null,"created_at":"2026-03-11 15:28:13"},{"id":233,"actor_id":280,"action":"data_import","target_type":"user","target_id":281,"details":"{\"import_type\":\"notes\",\"total_entries\":1,\"imported\":1,\"errors\":0}","ip_address":null,"created_at":"2026-03-11 15:28:13"},{"id":232,"actor_id":280,"action":"read_notes","target_type":"client","target_id":281,"details":"{\"notes_count\":0,\"page\":1}","ip_address":null,"created_at":"2026-03-11 15:28:13"},{"id":231,"actor_id":280,"action":"data_import","target_type":"user","target_id":281,"details":"{\"import_type\":\"notes\",\"total_entries\":2,\"imported\":0,\"errors\":2}","ip_address":null,"created_at":"2026-03-11 15:28:13"},{"id":230,"actor_id":280,"action":"read_notes","target_type":"client","target_id":281,"details":"{\"notes_count\":0,\"page\":1}","ip_address":null,"created_at":"2026-03-11 15:28:13"},{"id":229,"actor_id":281,"action":"consent_granted","target_type":"user","target_id":280,"details":"{\"client_id\":281,\"therapist_id\":280,\"telegram_id\":\"import_client_1773242893623\"}","ip_address":null,"created_at":"2026-03-11 15:28:13"}],"total":278,"page":1,"per_page":50,"total_pages":6}